total # of suburb in Twitter 151
albion	:{'bs': 4}
hampton	:{'tw': 1, 'bs': 51}
surrey hills north	:{'bs': 1}
ferntree gully upper	:{'bs': 1}
dromana	:{'tw': 4, 'bs': 36}
redesdale	:{'bs': 6}
white hills	:{'bs': 6}
portarlington	:{'bs': 18}
tarneit	:{'bs': 5}
inverloch	:{'bs': 25}
point cook	:{'tw': 2, 'bs': 35}
lauriston	:{'bs': 1}
south muckleford	:{'bs': 1}
nyora	:{'bs': 3}
five ways	:{'bs': 1}
dandenong west	:{'bs': 1}
yarck	:{'bs': 5}
poowong	:{'bs': 3}
tynong	:{'bs': 2}
south kingsville	:{'bs': 3}
richmond north	:{'bs': 2}
manifold heights	:{'bs': 1}
lara	:{'bs': 20}
west hastings	:{'bs': 1}
mitcham	:{'tw': 2, 'bs': 26}
bannockburn	:{'bs': 16}
taylors lakes	:{'tw': 1, 'bs': 17}
templestowe	:{'bs': 31}
yarraville	:{'tw': 5, 'bs': 50}
eltham north	:{'bs': 1}
sherbrooke	:{'bs': 4}
ruffy	:{'bs': 2}
somers	:{'bs': 5}
lara lake	:{'bs': 1}
steels creek	:{'bs': 4}
smiths gully	:{'bs': 3}
north ringwood	:{'bs': 4}
lower plenty	:{'tw': 1, 'bs': 15}
east balwyn	:{'bs': 1}
hawksburn	:{'bs': 2}
st andrews	:{'bs': 7}
mordialloc north	:{'bs': 1}
chelsea heights	:{'bs': 9}
connewarre	:{'bs': 3}
campbells creek	:{'bs': 4}
tynong north	:{'bs': 2}
romsey	:{'bs': 14}
balwyn	:{'bs': 33}
trentham	:{'bs': 9}
clarkefield	:{'bs': 1}
prahran east	:{'bs': 1}
kyneton	:{'bs': 44}
jordanville	:{'bs': 1}
cockatoo	:{'tw': 1, 'bs': 6}
berwick south	:{'bs': 2}
gardenvale	:{'bs': 3}
venus bay	:{'bs': 7}
bundoora	:{'bs': 54}
seddon	:{'bs': 14}
willowmavin	:{'bs': 1}
preston west	:{'bs': 2}
eppalock	:{'bs': 2}
anakie east	:{'bs': 1}
kooyong	:{'tw': 1, 'bs': 4}
rye	:{'bs': 32}
lalor	:{'tw': 1, 'bs': 23}
myrniong	:{'bs': 3}
ringwood north	:{'tw': 1, 'bs': 11}
woodend	:{'bs': 34}
ocean grove	:{'bs': 28}
millgrove	:{'bs': 1}
tullamarine	:{'tw': 36, 'bs': 45}
derrimut	:{'bs': 6}
spotswood	:{'bs': 14}
strathfieldsaye	:{'bs': 9}
drumconda	:{'bs': 1}
russell bridge	:{'bs': 1}
north balwyn	:{'bs': 5}
briar hill	:{'bs': 3}
pascoe vale south	:{'bs': 4}
warrandyte south	:{'bs': 6}
croydon hills	:{'bs': 2}
braeside	:{'bs': 14}
guys hill	:{'bs': 2}
lancefield	:{'bs': 18}
mitchellstown	:{'bs': 2}
endeavour hills	:{'bs': 20}
bendigo east	:{'bs': 5}
essendon	:{'tw': 1, 'bs': 63}
tremont	:{'bs': 1}
oak park	:{'bs': 8}
barwon heads	:{'bs': 20}
darley	:{'bs': 1}
ironbark	:{'bs': 2}
mount franklin	:{'bs': 1}
narre warren north	:{'bs': 7}
east melbourne	:{'tw': 24, 'bs': 37}
corio	:{'bs': 23}
aberfeldie	:{'bs': 1}
panton hill	:{'bs': 6}
collingwood	:{'tw': 19, 'bs': 87}
west preston	:{'bs': 2}
seaford	:{'bs': 33}
drysdale	:{'bs': 19}
lysterfield	:{'bs': 2}
dingley village	:{'bs': 4}
thomastown	:{'bs': 32}
monash university	:{'bs': 6}
strathdale	:{'bs': 4}
red hill	:{'bs': 40}
koo-wee-rup	:{'bs': 2}
highton	:{'bs': 18}
pakenham	:{'bs': 37}
muckleford	:{'bs': 2}
geelong east	:{'bs': 5}
north melbourne	:{'tw': 6, 'bs': 77}
fyansford	:{'bs': 2}
glenroy	:{'bs': 29}
glen waverley	:{'tw': 2, 'bs': 106}
footscray south	:{'bs': 1}
strathmore	:{'bs': 16}
williamstown	:{'tw': 4, 'bs': 88}
fairfield	:{'bs': 28}
west parkdale	:{'bs': 1}
gisborne	:{'bs': 32}
ballan	:{'bs': 10}
kilsyth	:{'bs': 17}
glen iris	:{'tw': 1, 'bs': 43}
frankston south	:{'bs': 1}
brunswick	:{'tw': 160, 'bs': 124}
loch	:{'bs': 6}
tecoma	:{'bs': 7}
musk	:{'bs': 3}
longwarry	:{'bs': 5}
lyonville	:{'bs': 2}
belmont	:{'bs': 39}
merricks north	:{'bs': 14}
marcus hill	:{'bs': 4}
gladysdale	:{'bs': 2}
viewbank	:{'bs': 4}
bonbeach	:{'tw': 1, 'bs': 8}
sutherlands creek	:{'bs': 4}
longwarry north	:{'bs': 1}
burnside	:{'bs': 4}
kilcunda	:{'bs': 3}
new gisborne	:{'bs': 5}
hesket	:{'bs': 2}
eumemmerring	:{'bs': 1}
tallyho	:{'bs': 1}
breamlea	:{'bs': 1}
pearcedale	:{'tw': 1, 'bs': 3}
dingley	:{'bs': 15}
caveat	:{'bs': 1}
boxhill south	:{'bs': 1}
lockwood	:{'bs': 1}
murgheboluc	:{'bs': 1}
kinglake central	:{'bs': 1}
deepdene	:{'bs': 3}
boneo	:{'tw': 2, 'bs': 3}
strathbogie	:{'bs': 7}
alphington	:{'tw': 1, 'bs': 10}
yan yean	:{'bs': 1}
tyabb north	:{'bs': 1}
epping	:{'bs': 53}
north geelong	:{'bs': 2}
silvan south	:{'bs': 1}
mernda	:{'bs': 7}
warranwood	:{'bs': 3}
iona	:{'bs': 2}
anglesea	:{'bs': 24}
monegeetta	:{'bs': 1}
balaclava	:{'tw': 1, 'bs': 28}
langwarrin	:{'bs': 16}
newhaven	:{'bs': 7}
eltham	:{'bs': 44}
anakie	:{'bs': 3}
northcote	:{'tw': 44, 'bs': 98}
axedale	:{'bs': 4}
caulfield south	:{'bs': 20}
vermont	:{'bs': 16}
cualfield south	:{'bs': 1}
eildon	:{'bs': 1}
mountain gate	:{'bs': 1}
narre warren south	:{'bs': 7}
cowes  phillip island	:{'bs': 2}
gordon	:{'bs': 3}
north shore	:{'bs': 2}
longlea	:{'bs': 1}
craigieburn	:{'bs': 24}
bentleigh east	:{'bs': 37}
sandown	:{'bs': 1}
franklinford	:{'bs': 1}
pakenham upper	:{'bs': 3}
cranbourne north	:{'bs': 3}
altona meadows	:{'bs': 7}
sutton grange	:{'bs': 2}
olinda	:{'bs': 26}
keilor	:{'bs': 15}
cannons creek	:{'bs': 1}
lyndhurst	:{'bs': 4}
rosebud	:{'tw': 3, 'bs': 48}
east thomastown	:{'bs': 1}
hanging rock	:{'bs': 1}
warrandyte	:{'bs': 27}
glen alvie	:{'bs': 2}
warburton east	:{'bs': 1}
altona north	:{'tw': 1, 'bs': 19}
docklands	:{'tw': 19, 'bs': 103}
toolangi	:{'bs': 5}
labertouche	:{'bs': 2}
sailors fall	:{'bs': 1}
tyabb	:{'tw': 2, 'bs': 12}
ceres	:{'bs': 1}
mornington	:{'tw': 2, 'bs': 90}
reservoir	:{'tw': 18, 'bs': 50}
malvern east	:{'bs': 44}
geelong south	:{'bs': 5}
dandenong north	:{'bs': 10}
melbourne south	:{'bs': 16}
locksley	:{'bs': 1}
auburn	:{'bs': 4}
pascoe vale	:{'tw': 1, 'bs': 21}
blairgowrie	:{'bs': 13}
hartwell	:{'bs': 2}
kinglake	:{'bs': 5}
thomson	:{'bs': 2}
doncaster	:{'tw': 1, 'bs': 48}
keon park	:{'bs': 6}
moorabool	:{'bs': 1}
keilor park	:{'tw': 1, 'bs': 7}
campbellfield	:{'bs': 20}
mt evelyn	:{'bs': 3}
denver	:{'bs': 2}
middle park	:{'tw': 2, 'bs': 17}
murrumbeena	:{'bs': 15}
melbourne area	:{'bs': 1}
deer park	:{'bs': 16}
burwood east	:{'tw': 3, 'bs': 21}
curlewis via drysdale	:{'bs': 1}
cora lynn	:{'bs': 1}
marong	:{'bs': 8}
greythorn	:{'bs': 1}
glen forbes	:{'bs': 1}
tallarook	:{'bs': 6}
essendon north	:{'tw': 1, 'bs': 8}
emerald	:{'bs': 16}
west sunshine	:{'bs': 2}
north caulfield	:{'bs': 3}
yandoit	:{'bs': 1}
mount martha	:{'tw': 2, 'bs': 26}
glenferrie	:{'bs': 2}
ashwood	:{'bs': 9}
sunshine west	:{'bs': 9}
hoddles creek	:{'bs': 2}
carlton	:{'tw': 13, 'bs': 164}
beveridge	:{'bs': 1}
newport	:{'bs': 25}
yuroke	:{'bs': 3}
mordialloc	:{'bs': 36}
big hill  lockwood south	:{'bs': 1}
ormond	:{'tw': 3, 'bs': 18}
bangholme	:{'bs': 5}
niddrie	:{'tw': 1, 'bs': 22}
chilwell	:{'bs': 1}
baxter	:{'bs': 11}
beacon cove	:{'bs': 3}
westgarth	:{'bs': 1}
kilmore	:{'bs': 22}
croydon	:{'bs': 61}
elwood	:{'tw': 1, 'bs': 53}
port fairy	:{'bs': 1}
broadford	:{'bs': 10}
sorrento	:{'tw': 1, 'bs': 35}
koo wee rup	:{'bs': 5}
oakleigh	:{'bs': 49}
brighton north	:{'bs': 3}
kilsyth south	:{'bs': 1}
longwood east	:{'bs': 2}
springvale south	:{'bs': 13}
kensington	:{'tw': 36, 'bs': 26}
whitfield	:{'bs': 1}
research	:{'bs': 7}
grovedale	:{'bs': 18}
seaholme	:{'bs': 2}
mooroolbark	:{'tw': 41, 'bs': 25}
bell park	:{'bs': 4}
narre warren east	:{'tw': 1, 'bs': 4}
brunswick east	:{'tw': 11, 'bs': 69}
hughesdale	:{'bs': 9}
macedon	:{'bs': 12}
south morang	:{'tw': 21, 'bs': 20}
lilydale	:{'tw': 5, 'bs': 50}
bass	:{'bs': 3}
fair field	:{'bs': 1}
burnley	:{'tw': 1, 'bs': 1}
kangaroo flat	:{'bs': 21}
gowanbrae	:{'bs': 1}
keilor north	:{'bs': 1}
hepburn	:{'bs': 2}
box hill	:{'tw': 1, 'bs': 90}
moorabbin airport	:{'bs': 2}
kew east	:{'bs': 19}
bendigo	:{'bs': 171}
corinella	:{'bs': 4}
malmsbury	:{'bs': 7}
notting hill	:{'bs': 4}
berwick	:{'bs': 52}
springvale	:{'tw': 6, 'bs': 65}
yarrambat	:{'bs': 7}
bulla	:{'bs': 5}
chirnside park	:{'tw': 4, 'bs': 28}
eaglemont	:{'tw': 47, 'bs': 2}
fitzroy north	:{'tw': 12, 'bs': 58}
healesville	:{'bs': 70}
south wharf	:{'tw': 4, 'bs': 13}
warburton	:{'bs': 17}
bayswater	:{'bs': 36}
canterbury	:{'bs': 15}
beaumaris	:{'bs': 41}
coolaroo	:{'bs': 5}
mccrae	:{'bs': 6}
rosanna	:{'bs': 19}
drummond via kyneton	:{'bs': 1}
williamstown north	:{'tw': 21}
wandin yallock	:{'bs': 1}
mill park	:{'bs': 29}
clyde north	:{'bs': 1}
belgrave	:{'tw': 29, 'bs': 24}
wollert	:{'tw': 3, 'bs': 1}
christmas hills	:{'bs': 1}
middle brighton	:{'bs': 6}
dandenong south	:{'bs': 11}
tooronga	:{'bs': 1}
moorabbin	:{'bs': 44}
east doncaster	:{'bs': 2}
coronet bay	:{'bs': 1}
east hawthorn	:{'bs': 3}
north fitzroy	:{'bs': 5}
grantville	:{'bs': 5}
flemington	:{'tw': 4, 'bs': 29}
lovely banks	:{'bs': 4}
glenlyon	:{'bs': 6}
rosebud west	:{'tw': 1, 'bs': 8}
doncaster east	:{'bs': 63}
stonehaven	:{'bs': 1}
chewton	:{'bs': 1}
coburg	:{'tw': 6, 'bs': 48}
gruyere via coldstream	:{'bs': 2}
beaconsfield	:{'bs': 24}
ripponlea	:{'tw': 2, 'bs': 10}
bayswater north	:{'bs': 4}
caulfield north	:{'tw': 1, 'bs': 15}
harrisfield	:{'bs': 1}
mont albert	:{'bs': 9}
wonga park	:{'bs': 13}
south yarra	:{'tw': 12, 'bs': 192}
pheasant creek	:{'bs': 1}
tylden	:{'bs': 4}
daylesford	:{'bs': 43}
barrabool	:{'bs': 3}
carrum downs	:{'bs': 29}
the gurdies	:{'bs': 2}
murradoc	:{'bs': 1}
wesburn	:{'bs': 1}
silvan	:{'tw': 7, 'bs': 7}
st kilda west	:{'bs': 5}
junortoun	:{'bs': 4}
cairnlea	:{'tw': 1, 'bs': 8}
cowes	:{'bs': 53}
east bentleigh	:{'bs': 2}
point lonsdale	:{'bs': 11}
keysborough	:{'bs': 32}
roxburgh park	:{'bs': 8}
ringwood east	:{'bs': 19}
noble park	:{'tw': 2, 'bs': 39}
werribee park	:{'bs': 1}
greensborough	:{'bs': 40}
east brunswick	:{'bs': 5}
thornbury	:{'tw': 14, 'bs': 51}
ballarat	:{'bs': 2}
pyalong	:{'bs': 3}
cardinia	:{'bs': 2}
junction village	:{'bs': 1}
world trade centre	:{'bs': 4}
phillip island	:{'bs': 10}
preston	:{'tw': 3, 'bs': 77}
north croydon	:{'bs': 1}
seville	:{'bs': 16}
garfield	:{'bs': 4}
frankston	:{'tw': 4, 'bs': 125}
hallam	:{'bs': 13}
watsonia	:{'bs': 13}
melbourne university	:{'bs': 1}
bacchus marsh	:{'bs': 33}
upper ferntree gully	:{'bs': 8}
point leo	:{'bs': 2}
mount dandenong	:{'bs': 8}
south caulfield	:{'bs': 4}
dallas	:{'bs': 2}
thornton	:{'bs': 2}
seymour	:{'bs': 37}
laverton north	:{'bs': 5}
aspendale gardens	:{'bs': 4}
ormond east	:{'bs': 1}
yellingbo	:{'bs': 2}
somerton	:{'bs': 1}
clayton north	:{'bs': 2}
melbourne docklands	:{'bs': 1}
wheelers hill	:{'bs': 19}
wonthaggi north	:{'bs': 1}
vermont south	:{'bs': 11}
crib point	:{'tw': 2, 'bs': 5}
tooborac	:{'bs': 3}
knoxfield	:{'bs': 18}
merricks	:{'bs': 8}
long gully	:{'bs': 1}
clifton springs	:{'bs': 5}
albert park	:{'tw': 6, 'bs': 72}
armadale	:{'tw': 37, 'bs': 52}
kangaroo ground	:{'tw': 1, 'bs': 12}
pakenham east	:{'bs': 1}
brooklyn	:{'tw': 1, 'bs': 4}
churchill island	:{'bs': 1}
marysville	:{'bs': 11}
hadfield	:{'bs': 4}
powelltown	:{'bs': 4}
pastoria east via kyneton	:{'bs': 1}
mount duneed	:{'bs': 3}
flowerdale	:{'bs': 4}
kealba	:{'bs': 5}
monomeith	:{'bs': 1}
croydon north	:{'bs': 7}
mornington east	:{'bs': 1}
moolap	:{'bs': 9}
st albans	:{'tw': 1, 'bs': 53}
balnarring	:{'bs': 22}
taradale	:{'bs': 4}
whittington	:{'bs': 1}
mannerim	:{'bs': 2}
eynesbury	:{'bs': 2}
cape woolamai	:{'bs': 4}
wattle bank	:{'bs': 1}
yandoit creek	:{'bs': 1}
craigieburn highlands	:{'bs': 1}
wandin north	:{'bs': 6}
hillside	:{'bs': 5}
forest hill	:{'bs': 24}
archies creek	:{'bs': 2}
tooradin	:{'bs': 9}
taylors hill	:{'tw': 1, 'bs': 7}
mcmahons creek	:{'bs': 1}
footscray west	:{'bs': 22}
richmond	:{'tw': 18, 'bs': 245}
strath creek	:{'bs': 6}
rhyll	:{'bs': 10}
toolleen	:{'bs': 7}
kennington via bendigo	:{'bs': 1}
travancore	:{'bs': 2}
skye	:{'bs': 3}
queenscliffe	:{'bs': 1}
tootgarook	:{'bs': 3}
balwyn east	:{'bs': 1}
belgrave heights	:{'tw': 2}
cowes phillip island	:{'bs': 1}
paraparap	:{'bs': 2}
st andrews beach	:{'bs': 1}
university of melbourne	:{'bs': 1}
yarra glen	:{'bs': 45}
altona east	:{'bs': 2}
bonnie doon	:{'bs': 4}
bittern	:{'bs': 8}
springvale north	:{'bs': 2}
gruyere	:{'bs': 9}
taggerty	:{'bs': 6}
indented head	:{'bs': 1}
north williamstown	:{'bs': 2}
attwood	:{'bs': 2}
maribyrnong	:{'tw': 2, 'bs': 25}
lethbridge	:{'bs': 8}
waurn ponds	:{'bs': 17}
swan bay	:{'bs': 2}
maddingley	:{'bs': 1}
frankston east	:{'bs': 1}
maiden gully bendigo	:{'bs': 1}
gembrook	:{'bs': 11}
tabilk	:{'bs': 2}
ravenswood	:{'bs': 2}
carlton north	:{'tw': 26, 'bs': 47}
broadmeadows	:{'bs': 21}
seabrook	:{'bs': 3}
karingal	:{'bs': 5}
montmorency	:{'bs': 16}
mt waverley	:{'bs': 3}
emu flat	:{'bs': 1}
upper beaconsfield	:{'bs': 1}
plumpton	:{'bs': 1}
bellfield	:{'bs': 2}
mandurang	:{'bs': 7}
melbourne airport	:{'tw': 14, 'bs': 26}
caulfield	:{'bs': 28}
geelong north	:{'bs': 22}
strathcreek	:{'bs': 1}
aspendale	:{'tw': 1, 'bs': 11}
lang lang	:{'bs': 9}
delahey	:{'tw': 19, 'bs': 1}
maidstone	:{'bs': 12}
acheron	:{'bs': 3}
molesworth	:{'bs': 3}
westall	:{'bs': 1}
east malvern	:{'bs': 4}
diamond creek	:{'bs': 23}
doncaster west	:{'bs': 1}
trentham east	:{'bs': 1}
greenvale	:{'bs': 6}
safety beach	:{'bs': 5}
clarinda	:{'bs': 2}
caroline springs	:{'bs': 24}
keilor downs	:{'bs': 4}
cranbourne	:{'tw': 1, 'bs': 42}
geelong west	:{'bs': 37}
syndal	:{'bs': 6}
red hill south	:{'bs': 24}
clayton	:{'bs': 63}
mont albert north	:{'bs': 3}
kew	:{'tw': 2, 'bs': 75}
sassafras	:{'bs': 14}
burwood	:{'tw': 2, 'bs': 23}
curlewis	:{'bs': 6}
cape patterson	:{'bs': 1}
main ridge	:{'bs': 21}
hampton east	:{'tw': 1, 'bs': 3}
prahran	:{'tw': 10, 'bs': 133}
sydenham	:{'bs': 11}
fairhaven	:{'bs': 1}
meredith	:{'bs': 5}
barfold	:{'bs': 1}
oakleigh south	:{'bs': 15}
catani	:{'bs': 4}
hoppers crossing	:{'tw': 1, 'bs': 32}
st leonards	:{'bs': 11}
doveton	:{'bs': 19}
ardeer	:{'bs': 6}
east st kilda	:{'bs': 6}
glen huntly	:{'bs': 3}
chadstone	:{'bs': 39}
surrey hills	:{'bs': 28}
meadow heights	:{'bs': 2}
leongatha south	:{'bs': 3}
norlane west	:{'bs': 1}
ventnor	:{'bs': 2}
knowsley	:{'bs': 2}
east geelong	:{'bs': 7}
launching place	:{'bs': 2}
braybrook	:{'bs': 19}
faraday	:{'bs': 3}
bailieston	:{'bs': 1}
kingsville	:{'bs': 1}
boronia heights	:{'bs': 1}
essendon airport	:{'bs': 1}
fitzroy	:{'tw': 39, 'bs': 205}
barkers creek	:{'bs': 1}
drouin	:{'bs': 26}
mulgrave	:{'bs': 28}
mount eliza	:{'tw': 8, 'bs': 44}
heathmont	:{'tw': 1, 'bs': 16}
flinders	:{'bs': 14}
newbury	:{'bs': 1}
aireys inlet	:{'bs': 9}
bellbrae	:{'bs': 4}
north dandenong	:{'bs': 3}
heidelberg west	:{'bs': 13}
east preston	:{'bs': 1}
sunshine	:{'bs': 55}
rochford	:{'bs': 2}
ferntree gully	:{'tw': 1, 'bs': 47}
cranbourne west	:{'bs': 1}
west melbourne	:{'tw': 3, 'bs': 43}
hmas cerberus	:{'tw': 1}
tuerong	:{'bs': 6}
glenhope	:{'bs': 1}
hawthorn east	:{'bs': 40}
ringwood	:{'tw': 2, 'bs': 55}
patterson lakes	:{'bs': 18}
maiden gully	:{'bs': 6}
brighton east	:{'tw': 1, 'bs': 24}
macleod	:{'tw': 1, 'bs': 8}
garden city	:{'bs': 1}
[unknown]	:{'bs': 1}
merricks beach	:{'bs': 1}
woolamai	:{'bs': 1}
brunswick north	:{'bs': 1}
east ivanhoe	:{'bs': 4}
portsea	:{'tw': 1, 'bs': 9}
mt eliza	:{'bs': 1}
tantaraboo via kilmore	:{'bs': 1}
toolern vale	:{'bs': 1}
dixons creek	:{'bs': 17}
greendale	:{'bs': 1}
st kilda east	:{'tw': 1, 'bs': 6}
cranbourne south	:{'bs': 2}
devon meadows	:{'bs': 1}
hawthorn	:{'tw': 7, 'bs': 116}
kingsbury	:{'bs': 8}
maldon	:{'bs': 16}
preston east	:{'bs': 3}
wattle glen	:{'bs': 2}
mentone	:{'tw': 1, 'bs': 34}
east oakleigh	:{'bs': 1}
blackwood	:{'bs': 5}
ivanhoe	:{'tw': 3, 'bs': 44}
melton west	:{'bs': 2}
truganina	:{'bs': 3}
glen waverley north	:{'bs': 1}
fingal	:{'tw': 7, 'bs': 4}
essendon fields	:{'bs': 3}
newham	:{'bs': 2}
shoreham	:{'bs': 9}
korumburra	:{'bs': 20}
ravenhall	:{'tw': 2, 'bs': 1}
hallora	:{'bs': 1}
south melbourne	:{'tw': 11, 'bs': 152}
airport west	:{'bs': 12}
silverleaves	:{'bs': 2}
yering	:{'bs': 12}
diggers rest	:{'bs': 5}
windsor	:{'tw': 2, 'bs': 75}
heatherton	:{'bs': 10}
blackburn north	:{'bs': 10}
sunbury	:{'bs': 67}
avondale heights	:{'bs': 8}
parkdale	:{'tw': 1, 'bs': 21}
camberwell	:{'bs': 70}
belgrave south	:{'bs': 3}
malvern	:{'tw': 1, 'bs': 79}
bentleigh	:{'tw': 1, 'bs': 32}
north sunshine	:{'bs': 2}
doreen	:{'tw': 2, 'bs': 10}
aspendale north	:{'bs': 1}
ascot vale	:{'bs': 47}
east burwood	:{'bs': 1}
west ivanhoe	:{'bs': 1}
trawool	:{'bs': 2}
sandringham	:{'tw': 1, 'bs': 39}
newmarket	:{'bs': 3}
norlane	:{'bs': 17}
sedgwick	:{'bs': 1}
baynton	:{'bs': 1}
boronia	:{'tw': 3, 'bs': 38}
hurstbridge	:{'tw': 1, 'bs': 14}
hastings	:{'bs': 31}
cheltenham	:{'bs': 63}
cottles bridge	:{'bs': 3}
dandenong	:{'tw': 4, 'bs': 89}
jan juc	:{'bs': 5}
lalor west	:{'bs': 1}
yea	:{'bs': 20}
chum creek	:{'bs': 1}
drumcondra	:{'bs': 2}
abbotsford	:{'tw': 64, 'bs': 61}
tarrawarra	:{'bs': 1}
west footscray	:{'bs': 4}
moorooduc	:{'tw': 3, 'bs': 19}
melton	:{'bs': 50}
somerville	:{'tw': 1, 'bs': 21}
murrindindi	:{'bs': 3}
rowville	:{'tw': 6, 'bs': 36}
bunyip	:{'bs': 9}
mount evelyn	:{'bs': 11}
yarra junction	:{'bs': 12}
avenel	:{'bs': 16}
pipers creek	:{'bs': 2}
sailors falls	:{'bs': 1}
werribee south	:{'bs': 5}
glenburn	:{'bs': 3}
clyde	:{'bs': 3}
euroa	:{'bs': 25}
buxton	:{'bs': 7}
edithvale	:{'bs': 10}
gherang	:{'bs': 1}
heidelberg	:{'tw': 2, 'bs': 30}
preston south	:{'bs': 2}
ripplebrook	:{'bs': 1}
kongwak	:{'bs': 1}
caulfield east	:{'tw': 2, 'bs': 8}
werribee	:{'tw': 1, 'bs': 74}
balwyn north	:{'bs': 31}
strathmore heights	:{'bs': 1}
narbethong	:{'bs': 1}
monbulk	:{'bs': 14}
east coburg	:{'bs': 2}
st kilda	:{'tw': 56, 'bs': 210}
merlynston	:{'bs': 1}
cranbourne east	:{'bs': 4}
wandin	:{'bs': 3}
nunawading	:{'bs': 20}
footscray	:{'tw': 2, 'bs': 90}
golden square	:{'bs': 9}
moriac	:{'bs': 1}
wallan	:{'bs': 13}
maryknoll	:{'bs': 1}
badger creek	:{'bs': 2}
st albans park	:{'bs': 1}
nagambie	:{'bs': 30}
officer	:{'bs': 6}
north glenroy	:{'bs': 1}
wallington	:{'bs': 16}
alexandra	:{'bs': 19}
bulleen	:{'bs': 24}
lower templestowe	:{'bs': 13}
north brighton	:{'bs': 1}
san remo	:{'bs': 16}
wonthaggi	:{'bs': 19}
highett	:{'tw': 2, 'bs': 23}
gladstone park	:{'bs': 5}
laverton	:{'bs': 21}
jacana	:{'bs': 3}
smiths beach	:{'bs': 2}
toorak	:{'bs': 44}
metcalfe	:{'bs': 2}
ferny creek	:{'bs': 1}
brighton beach	:{'bs': 2}
kalorama	:{'bs': 1}
mount burnett	:{'bs': 1}
spring gully	:{'bs': 1}
clematis	:{'bs': 1}
mount macedon	:{'bs': 7}
jolimont	:{'bs': 3}
california gully	:{'bs': 2}
warneet	:{'bs': 2}
newcomb	:{'bs': 14}
princes hill	:{'bs': 2}
wantirna	:{'bs': 32}
kanumbra	:{'bs': 1}
bighill	:{'bs': 1}
bellarine	:{'bs': 6}
burnside heights	:{'bs': 1}
lockwood south	:{'bs': 1}
the patch	:{'bs': 1}
beaconsfield upper	:{'bs': 7}
macclesfield	:{'bs': 1}
cremorne	:{'tw': 7, 'bs': 3}
black rock	:{'tw': 1, 'bs': 24}
seville east	:{'bs': 3}
leopold	:{'bs': 9}
box hill south	:{'bs': 11}
donvale	:{'bs': 10}
brighton	:{'tw': 5, 'bs': 107}
north essendon	:{'bs': 9}
carlsruhe	:{'bs': 1}
blackburn	:{'bs': 23}
nar nar goon	:{'bs': 4}
fishermans bend	:{'bs': 2}
north coburg	:{'bs': 2}
wyndham vale	:{'bs': 2}
melbourne	:{'tw': 40371, 'bs': 1096}
heidelberg heights	:{'tw': 1, 'bs': 6}
mount moriac	:{'bs': 3}
herne hill	:{'bs': 7}
lynbrook	:{'bs': 6}
kalkallo	:{'bs': 1}
huntingdale	:{'tw': 1, 'bs': 7}
bayles	:{'bs': 2}
wyndhamvale	:{'bs': 11}
upwey	:{'tw': 5, 'bs': 15}
plenty	:{'bs': 8}
kallista	:{'bs': 7}
oakleigh east	:{'bs': 3}
breakwater	:{'bs': 6}
bell post hill	:{'bs': 3}
fawkner	:{'bs': 14}
croydon south	:{'bs': 10}
avonsleigh	:{'bs': 3}
bennetswood	:{'bs': 1}
carrum	:{'bs': 13}
elsternwick	:{'tw': 1, 'bs': 73}
donnybrook	:{'bs': 2}
clifton hill	:{'tw': 2, 'bs': 28}
coburg north	:{'bs': 4}
wandong	:{'bs': 4}
baynton via kyneton	:{'bs': 1}
wandin east	:{'bs': 4}
newstead	:{'bs': 2}
geelong	:{'bs': 164}
box hill north	:{'bs': 10}
frankston north	:{'bs': 6}
hepburn springs	:{'bs': 19}
kernot	:{'bs': 1}
castlemaine	:{'bs': 42}
torquay	:{'bs': 53}
anderson	:{'bs': 1}
tooradin rd  pearcedale	:{'bs': 1}
hampton park	:{'bs': 18}
keilor east	:{'tw': 2, 'bs': 16}
hamlyn heights	:{'bs': 2}
yallambie	:{'bs': 1}
caveat via seymour	:{'bs': 1}
shepherds flat	:{'bs': 2}
fountain gate	:{'bs': 4}
parkville	:{'tw': 10, 'bs': 38}
brunswick west	:{'tw': 1, 'bs': 18}
drummond	:{'bs': 1}
port melbourne	:{'tw': 16, 'bs': 111}
eaglehawk	:{'bs': 13}
kingsville south	:{'bs': 1}
newtown	:{'bs': 23}
rockbank	:{'bs': 11}
batesford	:{'bs': 4}
cape schanck	:{'bs': 7}
elphinstone	:{'bs': 5}
south oakleigh	:{'bs': 2}
mount waverley	:{'tw': 1, 'bs': 48}
arthurs creek	:{'bs': 3}
ravenswood north	:{'bs': 1}
narre warren	:{'tw': 2, 'bs': 33}
longwood	:{'bs': 2}
chelsea	:{'tw': 2, 'bs': 25}
north carlton	:{'bs': 5}
little river	:{'bs': 2}
graytown	:{'bs': 2}
mckinnon	:{'bs': 13}
melton south	:{'bs': 8}
park orchards	:{'bs': 5}
westmeadows	:{'bs': 7}
sanctuary lakes	:{'bs': 1}
ivanhoe east	:{'bs': 6}
french island	:{'bs': 2}
wesbourn	:{'bs': 1}
woori yallock	:{'bs': 10}
altona	:{'bs': 39}
harcourt south	:{'bs': 1}
queenscliff	:{'bs': 37}
sunshine north	:{'bs': 7}
moonee ponds	:{'bs': 82}
north bayswater	:{'bs': 1}
outtrim	:{'bs': 2}
east warburton	:{'bs': 1}
wantirna south	:{'bs': 51}
noble park north	:{'bs': 4}
blackburn south	:{'tw': 3, 'bs': 10}
ashburton	:{'bs': 18}
scoresby	:{'tw': 1, 'bs': 10}
sandhurst	:{'tw': 1, 'bs': 2}
dalyston	:{'bs': 3}
mangalore	:{'bs': 1}
bon beach	:{'bs': 1}
modewarre	:{'bs': 1}
east kew	:{'bs': 1}
axe creek	:{'bs': 1}
carnegie	:{'tw': 2, 'bs': 47}
southbank	:{'tw': 49, 'bs': 100}
clayton south	:{'tw': 1, 'bs': 11}
tankerton	:{'bs': 2}
drouin west	:{'bs': 1}
south warrandyte	:{'bs': 2}
glenhuntly	:{'bs': 7}
guildford	:{'bs': 5}
tottenham	:{'bs': 4}
east keilor	:{'bs': 1}
arthurs seat	:{'bs': 4}
montrose	:{'bs': 12}
riddells creek	:{'bs': 11}
cape paterson	:{'bs': 1}
lake eppalock	:{'bs': 1}
mia mia	:{'bs': 2}
west rosebud	:{'bs': 1}
heathcote	:{'bs': 38}
harcourt	:{'bs': 8}
the basin	:{'bs': 10}
coldstream	:{'tw': 31, 'bs': 32}
whittlesea	:{'bs': 13}
total # of suburb in Victoria 867
total # of suburb in Twitter 151
